{
  "currencies": {
    "BAT": {
      "initialBalance": 10000,
      "confirmations": 30,
      "minFeeBlockchain": 0.1,
      "withdrawalFee": 0.1,
      "minDeposit": 0.1,
      "enabled": 1
    },
    "BTC": {
      "initialBalance": 10000,
      "confirmations": 3,
      "minFeeBlockchain":0.001,
      "withdrawalFee": 0.0004,
      "minDeposit": 0.0004,
      "enabled": 1
    },
    "BZT": {
      "initialBalance": 10000,
      "confirmations": 30,
      "minFeeBlockchain": 0.1,
      "withdrawalFee": 0.1,
      "minDeposit": 0.1,
      "enabled": 1
    },
    "CVC": {
      "initialBalance": 10000,
      "confirmations": 30,
      "minFeeBlockchain": 0.1,
      "withdrawalFee": 0.1,
      "minDeposit": 0.1,
      "enabled": 1
    },
    "DSH": {
      "initialBalance": 10000,
      "confirmations": 9,
      "minFeeBlockchain": 0.001,
      "withdrawalFee": 0.004,
      "minDeposit": 0.004,
      "enabled": 1
    },
    "EOS": {
      "initialBalance": 10000,
      "confirmations": 30,
      "minFeeBlockchain": 0.1,
      "withdrawalFee": 0.1,
      "minDeposit": 0.1,
      "enabled": 1
    },
    "ETA": {
      "initialBalance": 10000,
      "confirmations": 30,
      "minFeeBlockchain": 1,
      "withdrawalFee": 2,
      "minDeposit": 2,
      "enabled": 1
    },
    "ETC": {
      "initialBalance": 10000,
      "confirmations": 100,
      "minFeeBlockchain": 0.00315,
      "withdrawalFee": 0.01,
      "minDeposit": 0.01,
      "enabled": 1
    },
    "ETH": {
      "initialBalance": 10000,
      "confirmations": 30,
      "minFeeBlockchain": 0.00105,
      "withdrawalFee": 0.005,
      "minDeposit": 0.005,
      "enabled": 1
    },
    "GNO": {
      "initialBalance": 10000,
      "confirmations": 30,
      "minFeeBlockchain": 0.1,
      "withdrawalFee": 0.1,
      "minDeposit": 0.1,
      "enabled": 1
    },
    "GNT": {
      "initialBalance": 10000,
      "confirmations": 30,
      "minFeeBlockchain": 0.1,
      "withdrawalFee": 0.1,
      "minDeposit": 0.1,
      "enabled": 1
    },
    "ICN": {
      "initialBalance": 10000,
      "confirmations": 30,
      "minFeeBlockchain": 0.1,
      "withdrawalFee": 0.1,
      "minDeposit": 0.1,
      "enabled": 1
    },
    "LTC": {
      "initialBalance": 10000,
      "confirmations": 6,
      "minFeeBlockchain": 0.001,
      "withdrawalFee": 0.004,
      "minDeposit": 0.004,
      "enabled": 1
    },
    "STJ": {
      "initialBalance": 10000,
      "confirmations": 30,
      "minFeeBlockchain": 0.1,
      "withdrawalFee": 0.1,
      "minDeposit": 0.1,
      "enabled": 1
    },
    "REP": {
      "initialBalance": 10000,
      "confirmations": 30,
      "minFeeBlockchain": 0.1,
      "withdrawalFee": 0.1,
      "minDeposit": 0.1,
      "enabled": 1
    },
    "USD": {
      "initialBalance": 10000000,
      "confirmations": 0,
      "minFeeBlockchain": 0.1,
      "withdrawalFee": 0.1,
      "minDeposit": 0.1,
      "enabled": 1
    },
    "XRP": {
      "initialBalance": 10000,
      "confirmations": 20,
      "minFeeBlockchain": 0.01,
      "withdrawalFee": 0.015,
      "minDeposit": 0.015,
      "enabled": 1
    },
    "ZRX": {
      "initialBalance": 10000,
      "confirmations": 30,
      "minFeeBlockchain": 0.1,
      "withdrawalFee": 0.1,
      "minDeposit": 0.1,
      "enabled": 1
    }
  }
}